module gitlab.com/edwargix/tallyard

require (
	github.com/cbergoon/merkletree v0.2.0
	github.com/gogo/protobuf v1.3.1
	github.com/google/uuid v1.1.1
	github.com/ipfs/go-datastore v0.4.2
	github.com/ipfs/go-log v0.0.1
	github.com/libp2p/go-libp2p v0.5.2
	github.com/libp2p/go-libp2p-autonat-svc v0.1.0
	github.com/libp2p/go-libp2p-circuit v0.1.4
	github.com/libp2p/go-libp2p-connmgr v0.2.1
	github.com/libp2p/go-libp2p-core v0.3.0
	github.com/libp2p/go-libp2p-discovery v0.2.0
	github.com/libp2p/go-libp2p-kad-dht v0.5.0
	github.com/libp2p/go-libp2p-quic-transport v0.2.3
	github.com/libp2p/go-libp2p-routing v0.1.0
	github.com/libp2p/go-libp2p-secio v0.2.1
	github.com/libp2p/go-libp2p-swarm v0.2.2
	github.com/libp2p/go-libp2p-tls v0.1.3
	github.com/mr-tron/base58 v1.2.0
	github.com/multiformats/go-multiaddr v0.2.0
	github.com/multiformats/go-multiaddr-net v0.1.2
	github.com/rivo/tview v0.0.0-20200528200248-fe953220389f
	github.com/whyrusleeping/go-logging v0.0.1
)

go 1.13
